<svg width="36" height="19" viewBox="0 0 36 19" fill="none" xmlns="http://www.w3.org/2000/svg">
<path d="M2 2L15.5692 13.1435C16.8863 14.2251 18.7813 14.235 20.1096 13.1672L34 2" stroke="#FF6112" stroke-width="3.6" stroke-linecap="round"/>
<path d="M2 17L11 9.56522M34 17L24.9211 9.5" stroke="#FF6112" stroke-width="3.6" stroke-linecap="round"/>
</svg>
